<?xml version="1.0" encoding="UTF-8" standalone="no"?>
<!-- Created with Inkscape (http://www.inkscape.org/) -->

<svg
   xmlns:dc="http://purl.org/dc/elements/1.1/"
   xmlns:cc="http://creativecommons.org/ns#"
   xmlns:rdf="http://www.w3.org/1999/02/22-rdf-syntax-ns#"
   xmlns:svg="http://www.w3.org/2000/svg"
   xmlns="http://www.w3.org/2000/svg"
   xmlns:xlink="http://www.w3.org/1999/xlink"
   xmlns:sodipodi="http://sodipodi.sourceforge.net/DTD/sodipodi-0.dtd"
   xmlns:inkscape="http://www.inkscape.org/namespaces/inkscape"
   width="318.89764"
   height="184.25197"
   id="svg4107"
   version="1.1"
   inkscape:version="0.92.5 (2060ec1f9f, 2020-04-08)"
   sodipodi:docname="TMScard_SB.svg"
   inkscape:export-filename="U:\HacDC\BusinessCards\TMScard_SB.png"
   inkscape:export-xdpi="300.0022"
   inkscape:export-ydpi="300.0022">
  <defs
     id="defs3" />
  <sodipodi:namedview
     id="base"
     pagecolor="#ffffff"
     bordercolor="#666666"
     borderopacity="1.0"
     inkscape:pageopacity="0.0"
     inkscape:pageshadow="2"
     inkscape:zoom="3.4192308"
     inkscape:cx="65.9468"
     inkscape:cy="118.24039"
     inkscape:document-units="mm"
     inkscape:current-layer="layer1"
     showgrid="true"
     units="mm"
     inkscape:window-width="1920"
     inkscape:window-height="995"
     inkscape:window-x="0"
     inkscape:window-y="0"
     inkscape:window-maximized="1"
     inkscape:snap-from-guide="true"
     showguides="true"
     inkscape:guide-bbox="true"
     inkscape:snap-global="true"
     gridtolerance="10000"
     borderlayer="true"
     inkscape:showpageshadow="false">
    <inkscape:grid
       type="xygrid"
       id="grid4114"
       empspacing="2"
       visible="true"
       enabled="true"
       snapvisiblegridlinesonly="true"
       units="mm"
       spacingx="1.7716535"
       spacingy="1.7716535"
       dotted="false"
       originx="0"
       originy="0" />
    <sodipodi:guide
       orientation="1,0"
       position="5.3149606,319.78346"
       id="guide4122"
       inkscape:locked="false" />
    <sodipodi:guide
       orientation="0,1"
       position="30.11811,178.93701"
       id="guide4124"
       inkscape:locked="false" />
    <sodipodi:guide
       orientation="1,0"
       position="313.58268,200.19685"
       id="guide4126"
       inkscape:locked="false" />
    <sodipodi:guide
       orientation="0,1"
       position="178.05118,5.3149606"
       id="guide4128"
       inkscape:locked="false" />
  </sodipodi:namedview>
  <metadata
     id="metadata4111">
    <rdf:RDF>
      <cc:Work
         rdf:about="">
        <dc:format>image/svg+xml</dc:format>
        <dc:type
           rdf:resource="http://purl.org/dc/dcmitype/StillImage" />
        <dc:title />
      </cc:Work>
    </rdf:RDF>
  </metadata>
  <g
     inkscape:label="Layer 1"
     inkscape:groupmode="layer"
     id="layer1"
     transform="translate(0,7.0866043)">
    <rect
       style="fill:#ffffff;fill-opacity:1"
       id="rect5056"
       width="318.89764"
       height="184.25197"
       x="-3.4764292e-014"
       y="-7.0866046"
       ry="0"
       inkscape:export-xdpi="300.0022"
       inkscape:export-ydpi="300.0022" />
    <image
       y="-13.125839"
       x="-209.38583"
       id="image5390"
       xlink:href="data:image/jpeg;base64,/9j/4AAQSkZJRgABAQEAYABgAAD/2wBDAAgGBgcGBQgHBwcJCQgKDBQNDAsLDBkSEw8UHRofHh0a HBwgJC4nICIsIxwcKDcpLDAxNDQ0Hyc5PTgyPC4zNDL/2wBDAQkJCQwLDBgNDRgyIRwhMjIyMjIy MjIyMjIyMjIyMjIyMjIyMjIyMjIyMjIyMjIyMjIyMjIyMjIyMjIyMjIyMjL/wAARCAEgA+gDASIA AhEBAxEB/8QAHwAAAQUBAQEBAQEAAAAAAAAAAAECAwQFBgcICQoL/8QAtRAAAgEDAwIEAwUFBAQA AAF9AQIDAAQRBRIhMUEGE1FhByJxFDKBkaEII0KxwRVS0fAkM2JyggkKFhcYGRolJicoKSo0NTY3 ODk6Q0RFRkdISUpTVFVWV1hZWmNkZWZnaGlqc3R1dnd4eXqDhIWGh4iJipKTlJWWl5iZmqKjpKWm p6ipqrKztLW2t7i5usLDxMXGx8jJytLT1NXW19jZ2uHi4+Tl5ufo6erx8vP09fb3+Pn6/8QAHwEA AwEBAQEBAQEBAQAAAAAAAAECAwQFBgcICQoL/8QAtREAAgECBAQDBAcFBAQAAQJ3AAECAxEEBSEx BhJBUQdhcRMiMoEIFEKRobHBCSMzUvAVYnLRChYkNOEl8RcYGRomJygpKjU2Nzg5OkNERUZHSElK U1RVVldYWVpjZGVmZ2hpanN0dXZ3eHl6goOEhYaHiImKkpOUlZaXmJmaoqOkpaanqKmqsrO0tba3 uLm6wsPExcbHyMnK0tPU1dbX2Nna4uPk5ebn6Onq8vP09fb3+Pn6/9oADAMBAAIRAxEAPwDwCkpa SgBaKSloASloooAKKKKACiiigAooooAKKKKACiiigAooooAKKKKACiiigAooooAKKKKACiiigAoo ooAKKKKACijiigAooooAKKKWgBKWkooAKKWkoAWiijNABiiiigAooooAKKKKACiiigAooooAKKKK ACiiigApaKKACiiigAooooAKKKKACiiigAooooAKKKKACiiigAopaKAEpaKKAEpaAKKACiiigAop aKACjFFFAgooxRQAUUtFABRR1ooAKKKWmAlFLRigAxRRilxQAmKMUtGKAEpcUtGKAEoxTsUYpiuJ ilxRS4oASilxSgUWATFGMU4CgCnYQmKXFLilxTsA3FLinAcUYosFxoFKBTsUuKqwrjcUoFOxSgU7 CuMApcU4A0oFNIVxuOaUCn7aUCqsK4wClC08LTgtUoiuMC0VJtop8ormJRRRXEdIUUUUAFJS0UAF FFFABRRRQAUUUUAFFFFABRRRQAUUUUAFFFFABRRRQAUUUUAFFFFABRRRQAUUUUAFFFLQAlFFLQAU UUUAJRS0UAJS0UUAFFFFABRRRQAUUUUAFFFFABRRRQAUUUUAFFLRQAUUlLQAUUUUAFFFFABRRRQA UUUUAFFFFABRS0lABS0YooASilooAKKKKACjFFLQAlFL1ooASloooEFFFFABRS0UAFFFGKACiilo ASilopgJS4paKAEopcd6UUAJRS4oAoASlxS0YpiExS4oxS4osAlLilxQBTsAmKMU4ClxRYQ3FLji lxS4p2ATFGKdigCnYVxMUYpwFKBTsK43FLinYpcU7BcbilApwFKBTSFcaFpQKdtpQtUkK40LmlC0 8LmnBapRJuRhc0oWpAtOC1SgLmIwtO21IFpwStFAnmIgnNOC1KEpwT2q1TJciIJRVgJRVqBPMcrS 0UV456AUUUUAFFFFABRRRQAUUUUAFFFFABRRRQAUUUUAFFFFABRRRQAUUUUAFFFFABRRRQAUUUUA FFFLQAlLSUtACUtFFABRRRQAlLRRQAUUUUAFFFFABRRRQAUUUUAFFFFABS0lLQAlLRRQAUUUUAFF FFABRRRQAUUUUAFFFLQAlLRRQAYooooAKKKKACiijvQAUYpcUdqACkpcUUCCilooASilooAKKKO9 ABRRiloASilpQKYCUYpaMUAJilxRilxQAmKMUtGKAExS4pQKMUxXCjFLijFFgEpcUoFLimIbijFO xS4osAmKMU7FGKdguIBRinYpcU7CuNxSgU7FLinYVxuKXFLj1pwFOwrjAKUCnhacF9qpRFcYBS4q QLShapRFcj20u2pAtKF5qlEXMRhadtp4WnBfaqUCXIjC04LjtUgSnBK0UCXIi208JUgQ08JVqmS5 EQSnBKmEfNOEdaKmS5kIj9qcqe1TiOpFj4rRUyHMgEftTxH+tTrF7VIsVaKmQ5lcRcUVcWHNFWoE 8xwFFFFfNHshRRRQAUUUUAFFFFABRRRQAUUUUAFFFFABRRRQAUUUUAFFFFABRRRQAUGiloAKSloo ASloooAKKKKACiiigAooooAKKKKACiiigAooooAKKPWigAoopaACiiigAooooAKKKKACiiigAooo oAMUUUtACUUtFABRRRQAUUUUAFFLQKAEpaBRQAUUUUCCilooASloxRQAUUYooAKKKXvQAUUUYpgF FLijFACYpcZpaMUAJS4oxSgUAJRjmlxS4piG4pcUtGKAEApcU7FGKdhCYoxS4pQKLAJigCnYoAp2 ATFLilxS4p2FcbilAp2OKXFNIVxoXmlAFOApdtVYVxoFKBTgtLtp8orjcUoXingUoXFUoiuMApwW nhacExVKBPMRhaeFp4XpTwtaKBLkMC80u2pQtHStFAnmIwlOCU8DinqtUoEuREEp4jqZUz2p4jOK 0VMhzIAlPEdTiL2qQRVoqZLmVxHxT1jqwsXtUiw9OK0VMhzKwi9qkWKrSw+1SrB04q1AhzKixe1S LD7VcW39uKnW3qlEnmKKwZ7VMtvV5bbpxUyW3tTsTcoLb0VrJb+1FFxHjFFFFfLH0AUUUUAFFFFA BRRRQAUUUUAFFFFABRRRQAUUUUAFFFFAC0lLRQAUlLRQAlLRRQAUUUUAFFFFABRRRQAUYoooAKKK WgBKKKKACilpKACloooAKKKKACiiigAooooAKKKKACilooASilooAKSlooAKKKWgBKMUtFACUtFF ABRRS0CEoxS0UAJS0UUAJS0UtACUYpaKYCUtGKMUAFFLRigAopaMUAJS4oxS4oEJiilxS0wEAoFL ilAosAmKMU7FAFOwDcUuKdijFFhCAUYp22lxTsA3FLinYoxTsK4gFGKdtpcVSQrjcUoFOxTgtOwr jAKXFPC0oWmkK4zFLin7TTgoquUVxgWlC1IFpwSrUCWyMLShakC04LVqBPMRhacEqUJThHVqmS5E QTinBKmCU8R+1aKmS5EASpAlSrH7VIsXtWqpkOZX28dKaV5q2YjSeSc9KbgLnK4SpUTNTLDx0qeO DJ6VcaZMpkaRcVIIs1ajt+OlTrB7VsoGLmUlhzUqwe1XVt/ap0t/aq5SHIoLB7VMtuT2rQS26cVM lt7fpTshXM9bf2qdLb2rRS1z2qdLX2ougM1Lap1tvatJLb2qZLf2qXMEjOW19qnS19q0Ftx6VMlv ntWbqFqJQW246UVqrb4oqPaF+zZ810UUV88e0FFFFABRRRQAUUUUAFFFLQAlFFLQAlLRRQAlLRRQ AUUUUAFFFFABRRRQAUUUUAFFFFABRRRQAUUtJQAUUtJQAtFFFABRRRQACiiigAooooAKKKKACilo oASloooAOlFFFABRRS0AJRS0YoAKKKKBBRS0UAJRS0UAFHaiigAopaTFABRS0UwCijFKKAExS4ox RigAxRilxRQAYoxS4oxTEJRinYoxQAlApcUoFFgExRjFOxQBTsITFGM04ClxTsFxuKXFLilxRYVx uKXFOxS4p2C43FLinYpcVVhXG4pQKcBS4ppCuMxTttPC0oWq5RXGAUoWnhacFqlEm4zbShakC4FK F9qpQE5DAtKEqQL0p4SrUCXIiC04JUoSnhK0VMlyIQlOCVOI/anBK0VMhzIRHTwlTiKpFi9q0VMh zK6x08R+1WVi6U9Ys9q1VMhzKwiOelSLF7VaEOKlWGrUCHMqLF7VIsPtVxYM9qnS39qtRI5ygLfN OFrntWmlv7VMtt7VXKTzMy0tParMdrjtWklr7VYS1z2oskJtszltvapktvatNbX2qdLX2pcyFYzE tfarCW3OcVpJbdKmW3HHFS5jsZyWvtU623tWilt7VOlrWbqotQbM5LfHapkt89q0FhRetLlR0FZO o3saql3Kq23tUqwAdaeSx9qNoHU1Lk2WoJCBUFL9BRuAppapK0Qv1NFMJNFFgufNFFFFeKemFFFL QAlFFLQAlLSUtACUUtFABRRRQAUUUUAFFFFABRRRQAUUUUAFFFFABRRRQAUUuKKAEopaKACiiigA ooooAKKKKACiiigAopaKAEoxS0UAFFFGKADFFFLQAlFLiigBKXFFFAgoxS0UAJRS0UAJS9aKOtAB 0oopQKAEpaKKYCUtLiigBKXvRRigAopcZoxQAmKXFLRTAMUYpcUYosIQClxS4oxRYBMUuKXFKBTE NxS4pcUoFOwCYoxTsc0AU7CuIBS4pcUuKdhXG4zS4p2KXbT5QuNApQKcFpwWmkK4zFKFp4WlC1Vi bjAtO2+1PC04LVKIrkYWnBaeFp4SrUCXIiC04LUgSnhKtQJ5iILTglShKeI/atFTJciIJThHiphH TxHitFTIcyAR08R81YWLNSCGtFTIcysI/apBF7VZWL2qVYa0UCHMqiKpFi9qtLD04qZYM9q0UCHM piE+lSrCauLb5NTpbc9KpRIciisHtUq2/tWglt7VOlt7GqsTcz0t/apkts44rRS19qsJa57UaC1M 1Lap0tT6Vppa8dKsJbe1JyCxmJa+1WEtcdq0ktsdqmS29BUOoUomclrU6Ww9K0UtfaplgVRzWUqq NFTbM9bb2qdLYntVvCL0FG4noKzdRstU11IltgOtO2ovanbSeppdoFRzXNFFIbn0FL8x70pYU1m4 pDAr700kDoKaTmmk07CuOLGk3U0mmlqaRPMOJpM5ppNFOwrgTRSUUxXPm2ilorwj2AoFFFABRRRQ AUUUUAFFFFABRRRQAUUUUAFFFFABRR3paAEopaKAEpaKKAEpaKKACiiigAooooAKKKKACilooASi looAKMUUUAFFLRQAlFKKKADFGKKKBBRS0UAJS0UUAFFFFABRS0UwEpcUUUAFFFLigBKXFGKXFACY opaXHNACYopaUCmIQUUvSjGaAExS4zS4pcU7ANxS4pcUoFFhDcUuKXFLjNOwXExQBTsUuKdhXExm gCnYpQtOwrjcUoWnYxSgU7CuNxS4pwWl21VhXGgUoWnbacFquUVxm2lC1IF9qULmqURNjAtKFqQJ TwtWoEuREFpwSpQntTglWoEuREEpwSpglPEdaKmQ5EIT2pwjqcR09YzWipkuZAI6eI6sLF0qRYq1 VMzcysIvapFiqysWe1SrDmrUCHMqrF7VIIfarawe1TLb57VooEOZTWGpVg9qvLb57VOlqfSqUSHI z1g9qnS3z2rRS19qnS19qdkK5mpbe1WEtfatJLTParEdp7UXQjMS1z2qwlqT2rTS19qsJa+1S5js ZiWntVhLXpWklt04qdLUntUSqJDUWzNS19qnS2x2rSS1x1qUQqvWsnVNVRbM9LYntVhLWrOQMACm EsTWbm2aKmkNESLS5VegpMepo4FSVohdxPQUmM9aN1NLmkO44AD3pCwphNNLU7C5h5emliaYWpua aRPMP3YpC1NJpKdhcwpNIaCKSmSJSUtFAhKKKMUAFFGKKAPm6iiivCPaCiiigAoooxQAUUUtACUU UtACUUtJQAUUtFABRRRQAUUUUAFFFFABRRRQAUUUtACUUtFACUtFGKACjFFFABRiiloASjFLRQIS loooAKKKWgBKWiigAoFGKO1ABRS0UwExS0UtACUUuKKACilxRigBMUYpcUuKAuJRiloxTFcMUClA oxRYBMUuKUDvS4xTsA3FLinAUYosIbilxTsUAU7BcTFGKdilxTsK43FLinY9qUDFOwrjQKXFOApQ tUkK43FLinBadtpqIrjNtKBTwtOC1SiK4wLShaeFpwWqUSeYjC04L7VIEpwT2q1AXMRhKcEqUJTg laKmQ5EWynBKmEdPCe1aKmS5EISnhOlTrHT1irRUyHMgEdPEdWViqRYfatFTIcyqIie1SLFVpYal WCtVAzcyoIalWHNXFt/apkt/aqUCHMpLCeKlW39qvpbe1Tpbe1WokuRnrb+1Tpbe1aKWpz0qwlr0 4p6E3M1LWrCWvsa0ktParMdp7UroDLS19qsR2mT0rUS19qnS19qlzHYzUtParCWvtWklrntVhLTi spVUi1TbM1LXjpU6WvtWiIVXrUgCL0A4rJ1expGj3KSWh9KmW2A61YLegppBNZubZqqcUNCItKGA 6Cl2gdaQkDoKkrYCSaafrQWphNFgbFJAphakJppbiqIbFJpCaaWppanYm47NNLUmaQDvTsJsUtTc mnbTS4oEMFLil4BpC1MAxSFqQnNJQFwLZpOppaQigQd6KKCKADNFSLEWHFTR2jNUuSRSi2VQCelF ai2ix9RmiodRdDRUn1PlmiiivHPUCiijFABRRS0AJRS0UAFFFFABRRRQAUUUUAFFFFABRRRQAUUU UAFLRRQAUYoooAKKWigBKKXFFAgooooAKKKWgBMUUtFABRiiigApcUUUwEpaKXFACUUuKMUAFGKX FFABikxS4pcUAIBRilxSgUxCYoApcUoFACYoxSgUoFMBuKXFOxRiiwhMUuKXbSgU7BcbilxTsUAU 7CuIBRtpwWnbadhXG4oAp+KULVWFcZinAU4LS7aaiK43FKFp4WlC1SiK4wLShak204LVqJLkRhac FqQJTwntVqBLkRBacEqUJTwlaKmS5EISnhKmEftTxHWipkOZAI6esdWBFUixVoqZDmVhHUgi9qsr D7VIsPtWipkOZVEVSrF7VaWH2qVYPatFAzcyosNSrDntV1LfjpUyW3tVqBLmUVg9qmW3z2q+lqT2 qwlr7VVkiHIzkt/ap0tq0ktM44qwlp7U9EK7M1LX2qdLU+laiWntVhLX2pcwWMtLT2qzHae1aaWv tVhLX2qHURSTMxLX2qwlr7Vppae1TLbYrJ1UWqbZnJa+1WEtSelXxGq9qX6CsnVZqqPcrpaYHNSr Cop+DSgYrNybNFBITYAOKMH6U7gdTzSFwKm5Wg3aSaXaBSFiaaTQA/cBTS1NJpDTsK4pNNJoJOKY T+dCE2Bamk0hbNFUS2NJJpMGngYpGOKdxWIyKAM0pIpN2KZIu3FJkCmlqTNFhXHFvSm7qKSmFwoo xTghboKBDaSpxbse1WIbQDBbpUuaRSg2UcGpEgZ+lXprePIIp6/IvyiodTTQ0VLXUoravuwRU5tF Ue9StcEHpk1IjFxkrUOUi4wjsVFjdTgdKmQspBNSPKIx0qAzl24WldsqyRbaZdnTmiqXmYfBFFTy 2HzHy9S0UV5p3BRRRQAUUUUAFFFFABRRRQAUUtJQAUUUuKAEpaKKACiiigAopaKAEpaKKACiiigQ UUUtACUtFFABRRS4oATFFLRTAKMUUtACUUtLigBuKWloAoATGaXFGKXFMBMUuKKXFFhCYopQKXFA CAUYp2KMUxCYpQKXFGKLAJijFOxS4p2FcTFAHrTse1LinYLjcUYp4FLiqsK40DilxTgtKFp2FcaB SgU7bTgvSq5RXGAUoWnhacEqlEm4wLS7akC04LVKAuYjC04LUgSnhK0UCXIiC04JmpQlPEfSrVMh zIQlPEeamWOnrFWqpkOZAI6eI81YWLNSrD7VoqZDmVlj9qkWE+lWlhqRYe9aKmQ5lURetSCH2q2s B44qZbf2rRQIcymsOe1SpATV1Lf2qdLb2q1EhyKC2+e1TJb+1aKWvtVhLX2p2RPMZqW2anS19q00 tParKWnTindCMxLXpxViO09q1EtOnFWUtMdqlyHYyo7T2qylp7VqR2f+zVuOwJxkVnKqkUoN7GQl p04qylp/s1rpYBeuKnWCNO1YyrroaxoPqZKWZP8ADVhLPHWr5ZFHGKjZs9KzdVs0VFIiS3UVKFRe 1JzSEZqG2zRRSHFwOgpMk0mMdaXcBSGAFLgDrTDJTCxIosxXRMXUVGzk0zOaCadhNjxk0hOKaG7U fWgBSc0AZppYCmmSkBLhR1ppYA1GZBg1G0uaaTE5IkZ6Zmoy2aTcBVJEcxLkCml/aoy9NzmnYnmJ C/X3phfNJRjJpiuFFKFyacYmHJFFxWYzFGKmjgeTgCrYsMJknBqXNIuMG9igELdB0pyws3atOBIo /lYZNWAka84FZurboaKiZ0NkXwTxV2O2jiXJANSS8R5TpUMMpbKsOazcnLU0UYx0H/uy1LM8SJx1 prRgnrg0kkACjLZ9KWlytSGLDvyeKtlIwvBqAQ7F3Z4qCVj0UnNPd6AtFqJIwDHHNT2zMVIPAqoq bPmZvzqX7SoXC9abWmhKet2T3EaEH1qCIomQ1JvZhnoKrliWoS0sDavcsS+WASvWioVZQPm60VQt z5hoooryj0AooFGKACilooASloooASloooAKKKWgBKMUtGKACgUUYoAKMUYoxQIKKWigBKXFFFAB RiiloASilxS0wEoopcUAJilxRS4oASjFLRigBKUCloxTC4mKXFKBRigQmKMU4CjFMBMUU7FGKAEx S4pcUuM07CGgUuKdigCiwriYpQKXFKBVWC40D2pQKcBS7adhXG4xSgU7bShadhXG7aXFPC0oWqUR XGbacFp4WnBapRJbIwtOC5p4SnhKtQJciILTghqUJTxHVqBLkQhM08JUqx1II81oqZLkQBKcI6nW P2qQRZrVUyHMriOpFj5qwsVSrD04rRUyHMqrHUixdKtLD7VKsOe1aKBm5lRYfapVh9quJBUy2/tV qBDmUlhzjiplgq8lt7VOlt7VaiQ5FBLfPapkt89q0UtParMdp7VWgm2ZiWxParCWvtWpHaY7VZS0 9qLoRlx2vTirEdp7Vqx2ntVlLQn+Gpc0CRlJae1WY7TpxWtHYs38NXItO6bulYyrJGkacpbGNHae 1WYrFj/Ca2Vtoo+tKZFXhQKxlXb2No4fuUY9OPcVYW0RetS+Yx9qPMA7ZNZOpJmypxQojVOgpDJj pTWd26cCm+WT1zUepXoDSselM+dqkwq01pAOlMLdwCetGRUZlNML5p2J5kTllFMaSot35UU7C5uw pYmgmm5owTTEBIFJuJPFOCA9aMAd6V0FmJg0dqUuBUTygdKNWGiHkgCmGTFQtIT3phJPeqUSHLsS mTNN30zNFVYhscWzTc0mKXFAgzR1pcUu0nnFAxtFSxwtJ0FTGzK9aTkkNQbKoFPSMt2q2kKoPmqz DGpGVFQ6li40rle2tfmDMKszBDxgcU9mEfUUiKr9/wA6ycm3c3UUlZDIpFjwFXNSSbnI5xTzHHEM 5Gajmk/d5Hapvd6DtZCmAKu4kGqc8zbsKSBT2lk2+1VjOCcEVcUyJNWLUE7EYNShSG3DAqtCyscU shcNhTSa1GnoWGJJBJ/Ko3d05IyB0qHa4IZmwKc9ymNucmiw7ksUzS8EcVDcSBHwBTHudq/KtMiD Tt8woS6icugksgcc9KYXQAbetTTWoXnNLDbJIODVXVibO5F5ruuMcVYSIBPf6VJHFHGcdTUgOxsl eKhy7FqPczZYJWfoaKuz3m08KKKpORLhG+rPlmiiivLPQDFFFGKACilxRQAlGKWigQUUUUAGKKKW gBKKWigBKWijFABRRS4pgJRilooAMUYpRRQAlLijFLigBKKXGKMUAFGKXFFMQmKXFLijFACAUuKX FAFACYox2p2KUCmIaBS4pcUuKdgGgUuKdjNLinYVxuKMU4ClxzTsK4gFAFOxS4p2FcaFpcU/aaUL VWFcZtpwFO204Lz0qlEVxgWlC808L7U4LTUBXIwtOC+1SBfanBKtQJciPbTgnSpQlOEdaKBLkRBf anBKmEdPEdaKmQ5EISniOpxH7VIIq0VMhzK4jp4jqwsNSrDWqpkOZWWLNSCHpVpYfapVhq1AhzKi xc9DUqw57VcW39qmS3OelaKBm5lJYM9qmWA+lX0tj6VOlt7VXKTzGelv7VOltmtGO0zjirMdpntV WRN2ZqWp44qwlp7VqR2ftVqO09qTYGUlpnHFWY7PpxWrHadOKtx2TH+GpdRIaTMlLPnpVmO09q2Y dNY9qvRaaqjLVhLERRrGjJmDHZk9F/SrcVgxx8tbQgiTtmlJAHAxWEsQ3sbLD9yhFpoHLVaS2ijH ODSNJj+KmmTPQZrJzlLqaxhGPQkLqv3VqNpGPtSckcmgACpuXYbknrRtzTiQOKY0oHenqw0Q4J6m g7Fqu09RNKTTUWyXNLYtNMq1E057VX3E0VSikQ5tj2kJpu6kPAphY5xVIltjyaTdSAEmnBKZOrAH mnbs9BSeXSjC9TU3LSYoUn2pSQo681G8+KgaXJ60JNg5JEzSAVEZD61EWJpKtRM3JjzITTSaSimT uFApcU4KTxRcLDcUY9qspbMwzg1Klrk81LmkUoSKYQntUqQM5xV1IVXrUgRVGRxWbqGipdyqtmc1 YEKIhyOaYZwG68VItzGRzUtyNIqKI1YJ90U4fN95qinuY+i9arLPk8mny3JcktDRIjxjNOjkWIcV mPcccGovPcd6PZtoPaJM0nucuS1RNc4IxxVBpGbvT44mc+1VyJE87exbkuPk5NQtcuVxnilktmVe vaq7IwoSQSchzzswxmmIctk0piwuc0xTtYe1V00Id+poJE5G5Aaekcjt82BUEepNHHtUComvpG71 nyyZrzRRdliJ/j4+tJ9mjwDkZrPNy570w3DnvRyPuLniaTxJgfMMUnnRxDCnmswysepNMLk9afJ3 D2ltkX5py38VRpclBxVTf60gkxT5Rc7vcuxzuW3E80r3r5IzWf5pFNZye9HIHOyxNOzHk0VVZqKt RI5j56pcUUYrxT1goopaBCUUdaXFACdKWiigAopaKAEo70tFMAoopaAEopaMYoATHFLRSigBMUYp aUCgLiYoxS4pcUxCYopcUuKAG4pcUoFKBTEJijFLilxQAmKMUuOaXFOwCYoxTsUoFOwrjcUuKcBS gU7CuNxShacB7UoWmkK40CgCngUoWqsK43bShaeFpQvNUoiuMxTgtP204JVKIrkYXNKFqUJ7U4JV qBLkRBOaeE9qkCe1SBK0VMlyIAtPCVMI6eI81oqZDmQqlPEftU6x09YicVoqZDmQCOniOrKw+1Sr D7VoqZDmVRF7VIsNW1h9qlWDPatFAzcyosOKlWHnpVxLfPapkt81agQ5lJYD6VMlvntV9Lb2qwlr 7VaiS5Gclv7Gp0ts9q047TOOKsJaZ7U9ETe5mJan0qzHae1aiWntVmO056UnKwWMuO09qsx2ntWt FYsei1eg0t3A+Ws5VYopQb2MVLTOOKsx2h9K6G30kDl6tJYxIelc8sTFbG0cPJ7mBFp7Nj5avRaW eMitlYlXooFP2ADJPFc8sS3sbxwyW5QisI061ZSGNRwtPeaKPqcmqkuoAcIKz5pyNVGES309AKje 4iTqwrMkuZZD1qLk9TTVPuDn2L73i8hRULSu/U4quDjpThx3quVInmbJQQKXeKgZwB1qMy+lO1xO SRZMgHeo2uMdKrlyabTUUS6j6ErTE1GWJoxQRxVaIjViUZoyKQt6UwFBo3CmcmlGAM0guP5IpAmO tNMuKY0xp2YrosBgtBlC1VLk00knrRyhz9iw9xnpULSlqZRimkkS5NgSTRSgc1IkTN2ptiSZEKUA 9qs/ZiBmgRqnWp50VyMrhfSlCGpC6g8CmmXPQUXYWQ5I/WpPlBFV/MOaQuaVmNNI1Eu0WPbgZqP7 WCaz93vSbqnkRftGXpLpfxqB7liMA8VXL5ppNNRSE5tkhkNNMh9aYTSVVjO47JNHJ7UmRTt+BjFM AVc80q7QeaZuPrSE0hk5ZAcinfadowBVUtSbqOUOaxYadj/FxTGlJ71AWpC/NPlDmJC5PekzUe7m k3UWJuSg0m6ot2KQtRYLkpak31FupC1OwXJd9IXqImkLYosFx5fApC9RlqTdRYB++gmo80bs0APL UVHyaKYHgtFFFeEewFFFLQAlLRRQAUUYpaYCYopaXFACUUuKMUAJS0YpcUAJilAoxS4piEFGKXFL iiwCYoxSgUuKYDcUuKdijFFhCAZpcUYpcU7BcTFLinYoAp2FcaBTsUuKXFOwrjcUuKcBSgVVhXGh aULTguacBTsK4wClC08LTgtVyiuRhacFqQLxShKpRJuRhacFqUJTtlWoEuREFpwSpQnSniOtFTJc iEJTwmamEftT1jrRUyHMhCe1PEdTrHUgi9q1VMhzK4jp4j9qtLDUiw+1aKmQ5lVYjUqw1aWGpkg9 qtQIcymsNTLD7VcS356VOtvntWigQ5lFID6VMtvz0rQS29qnS1JPSqUSOYzkt89qsJan0rSjtM9q sx2ftT0FczEtfarCWntWrHZ+1WY7T2pcyCxlx2nTirUdp04rUisiTwv6Vdi052xxWcqqRSg3sY8d p7Vajsy2MLWzHphHUVcisVTHFYSxCRtGhJ7mVBpbPjIrSh0qNBliKvJHtFP3KBya5J15PY6oUIrc iS2iQcLmpVTaOBiomu0Q4qvLe9gcVlaUjX3UXiUXqRTGmiUdc1kvcse9MMpNV7LuL2iL0t9j7vFV Hu3buahJzTTgCtFFIzcmxxdmPJo471GWxSFzVWJ5kSFgKYWphYmk5p2Jch+/FNLmm59TRmmTdgea KXvzSFgKAsGOKPrTdxpd4FAC5PYUmCetNLjFNMlNJiuiTpTSwFRFyaQmnYXMPMnpTSxNNpQpNPYm 7E60c+nNSpCznABq3FY92qXNIqMGyhigKfer5t41fkjFJI0K8Clz9ivZvqVFiJPSpxbYGSaY84/h FRtOzdTxRqw91ExVF7ij7Qq/dqqWJpM0cvcXPbYna4Y96jLk96ZmkzTshNt7ik0ZpuaKYh2aOtNz Sg4oAXFAx600tSbvekA44pM+9Nz78UhNOwXHE0hNNJ5pCaYh2aQmm5pM0AO3Um6m5puaBXH7qQmm 0ZpgLupCaTNITxQAuc0maQmlBoADR2pSQKYzA9KBgTSE0maM0CAn3ppJpc56CgCgYn8qMUUA0AGK fHHvcCkBpyyFM4pO4y6lnCACz/rRVJpCTnNFRyvuXddjwGiloxXjnqCUuKKMUAJilxS0YoATFLS4 ooATFGKWlpiExRilpcUWATFGKUClxTATFGKdigA0WEJilxSgUoFOwXG4pcUuKdinYVxuKMU/FGKd hXG4pQKcBShapIVxoFKBTwtLtppCuMApQtSBaULVKIrjAvSlC1IFpwSrUCXIjC04LmpAntTglWoE 8xGFpwWpQlOEftWkaZLkRBKeE9qmEftTxHWipkORAE9qeI/arCxZqRYvbitFTIcyuIzmpBF7VYWH ipVhz0FaKmQ5lVYqlWGrSw+1TJbk9q0UDNzKiw+1SrB7VdS3PpxU6W3tVqJDkUFg9qnS39q0Etul WI7XPaqsieZmclvnt1qwltnHFaUdp7VZjtPanoIzI7XOOKspae1akdn7Vet9Mkk+6v6VLmluNJvY xo7PpxVmOz6cV0cGhSMORitCHQlXlqwliYLqaxw830OWjsyei1fh0uR8fIa6ePTYY+2atJEqDhQK 5p4zsbwwncwYNDJwWFXk0uKMDPJrTI9TUMkiIOa5nXnI6FQhEgS1jU8LUvlgDoBUZu1xwKie6BFT 7zL91bFg7RTGmVRWfJdMeAahaRm6mrVN9SXNdC7NeDHFU3uXbNRFh+NRls1pGKRm5Nj2kJ6mmbs0 mOaMgVZF2Lk0pqMtSFyaLBceW7UwtmmlvWk3jtTsS2OyaKZuJpM4osIfnFISabupQR3NMQoHcmhm A6U1nA6VEWzQkDaRKZAKYXzUeaM1ViXJjixpNxpO9ABPagQE0YJp8ce41citQMM2KTkkOMXIpbSa cIXIzitGQQKAR1qKS5QDAUVHO3sjT2aW7IktSy5NSxpGv3qga6YjA6VC0rHvRZvcLxWxeM8cTfKK jkvWYcGqJYmkzQoITqPoTNMx71GWJpuaTNWkQ2xc0ZpM0maYh2aTNJSZoAdQeO9NzSZ4oAdmkJpC aOtAC5xSE0hB705Y2foKAG5ozUghcnFII8NgmldBZkeaUA9hUrIijqDSxzRgYK0XHYrE4oxxT5mU twKizTE0SKoIyTSsUC9eahyaaSaLBccSKbuooxntTEJuozmnBCe1AjLdqVwGc0cmpViwfmqUxKpB pcw1ErBGPagIScYOa0lkgCdOahkZF+ZcfSlzMrlt1KrQsByKEgZucVLJclhjApguWUECn7wWQ3yw rYb+VMlCg8UjyFzk9aTPrTEKCMU0tRQqFzgCgBM0h4qTyWBweKYygHmi4WG5xRn8qf5bEZUZpmDR cAwaKWigDwgUYxS4orxT1gxRRiloATFFLilxTsAmKMU7FAH50CExQBTsZNLinYBuKXFKBS4osFxM dKAKdilAppCuNxSgU4Cl21SQrjQKUCnBaXFOwrjcUu2nBaULVWFcaBShaeFpQtNRFcYBTguKeEpw SrUSWyMLTgntUoTHanBKtQJciIJTglSiOnhK0VMlyIglOCe1TCOpFj68VoqZDkQCOniKp1iqVYq1 VMhzKwj9qkWLNWVhzUqw+1aKBDmVVi4qVYatLBUyW/tVqBm5lNYamWE56VdW39qnS2z2q1EhyKK2 /tUyW/tWglqfSrCWuT0qrEtmclsfSrCWvsa00tD6VZjtPanoIzI7X2qylp7VqR2nTirMdp04qXJI djLjs+nFWktPatSKyY/wmrsWmO2PlrOVVIqMG9jHjtParsOnO+ML1rfs9KUcuK1Et44xworkqYtL RHTTwrerMW10MFQz1sW9pHAm0KCalA59qkyFriqVpS3Z2woxjsM2Z9qNoA5oaQAVA8+elZK7NLJE pdVqJ5sd6rNJnvUMj+9aKJDkTPcAdTVOe53ZAqJ3yTioS1bRgkZSkxxlI61GXJoJGaQNjtWhncXB /CmsaC3HJxUbOBTSE2KTzQGAFRFiabuqrEcxIz+lNLZpmSaXaTTsK7YpemljRspDx1o0FqLmk4pM 00sB9aYh+TSH3NML00kk0WFceWA6U0sTSYNKFJpiuJ1op5jI6ilEZ70XQWZHinLGW6VJ5WKcjiOk 5dilHuMER3c1MERRyRULykmmF6nVj0RPvVTxQbk9M8VWLUlPlQcz6EjSEnrTN1Nop2JuLmkzRSUx BRRS44oASkp20npQVpXCw3OKKXFJjFAxKKKKYgxnpThGTQrBT0p5nJPAxUtsaS6iGLA5p8Sov3ul QtIWPNNLH1os2O6RckMJHFMFyqDAXmqhPvSFqOUbk+hO1wzHNQs5JyabmkzTSJbFzmjijPFFMQhF Jgil3YNKz57UagN2k0BM0obFG40tR6Do1UN81Ww1uF5HNUCaKTVxp26Eskihjt6VGJWHSmgZ600k CnYV2PMrE80plyMGoSaTJp2C48tzSbjTDmjPFACk0mc0AbiKcyEUXCwzNKBmkZCooBx3oAsIihck UiSCMkqKmt5oypEmBTJGi3fL0qC7aXIpZHfkjj2qHOetTSSArgYqDIzVLYTL9vMixFWFVJWBc4qM EnpQVcEAg0kkmDelhRzRTgjJyy0U7geEYpcUuKXFeOemNApcUuKUCnYBMUYp2KMU7CuJigCnYpQK LBcaBSgU7FLiqsK40ClAp2MUoXpTsK43FKBTtvFO21VhXGAUoWnhacFpqIrjNtKFqQJTgtWoE8xE F5pwXNShMU4JVqBPMRBKeEqUJ7U8J7VoqZDkQhKcEqcR08R1rGmS5kIjp6x1OsVSrDmtFAhzKwj9 qkWKrKw8VIsPFaKBDmVlizUiw+1W1g46VMsGe1aKBm5lNYalWH2q6tv7VYS26cVSiS5FBYPap0tz 6VoJa+1WI7XOOKqxNzPS2yelWEtfatFLT2q1HaY7UXEZkdr7VZS09q047X2qzHa+1JyQWMyO09qt R2vTitOOzJ7fpVyLTycZFZSqpFqDZkx2vTirUVmT0WtiOwVeSKuw26DGBWE8QuhtHDt7mPDpzN2r Qg0oDG4VrRwhVzipMqo4rkniZPY6oYaK3KsVlHHjip9iqMAChnqJpgKwcpSN1FRROvFDSAdTVRrk 9BTPnbmly9x37FppwvQ1EZyx61CVx1NRtIsfU1SihNstbmPSoZSR1NVmvtv3arSXLyHrVxpsiU0W WkC/xVBJODVcknqaYXA71qoIycyUuSeKafc1CZj2phcnqavlM3JExZR3pjSntURNJVJEuTHFietJ 16UbSTTlwpyaYldiFTQE55qRpRjpUJk9KSuDSRJtANBYAVC0lMLk0+VhzJbEjSdcGoy9JyaAuapJ IhtsCaQAmpBGfSnrEAfmpXQJNkQBzShD1qw4jUDBqMyjGMUrtj5Uh0cIIyaeDHHyOarmQjpTS5Pe lZsq6RYkmDngYFRGWos0ZpqKE5DjIT3puTSUelMkM4oz+VGKXFMBtFOCH0pdhpXCwyjFP2U9Ys0X HYixShSTVlIckCpDb7WGKhyKUGVjCQOlKIa1BGgjBNQSOg6VKm2X7NIiSAbelRvBg1K9wwGFqs0z k5NCuD5Rj/KcYqFmzUjAueDTxb4XJq7ozs3sViadgmphEG6VKtuSPehyBRZW8o4pjJtrREaCP5mH FU5dobrxSUrjcbEBpMEip2VSmR1qHzMDGKpMloQKW6UNGV60iyEHikaQnqaeotAPSm0uabTAXJoz SUlAhc0UlFABRRSE460AOBGeaGYHoKj3UhJpWGOJxSYJpUjL9KU5Q4xRcBnTNHHNB5pMUwENAFKB TttFwGjg8U4sxxQBTlRmHANS2Mjdi3BqM1Y8pmOAKjeJlPNNNA0MHSjB9DmpoEBfLdK0Q1qABgZq ZSsUo3MuKB5W2qDTpbV4T8w4q+JRE4MQp8solQ+bgGp53cpQVjLDBGBxmp/tCMwyuKrzBQx2niox nNW0mRdo2muLU2+Djdj0orFPAopKCL5/I//Z "
       height="192.70149"
       width="669.10236" />
    <rect
       style="fill:#ffffff"
       id="rect4689"
       width="93.897636"
       height="93.897636"
       x="21.259842"
       y="7.0866241"
       ry="0.82729197" />
    <g
       id="g4280"
       transform="matrix(0.2682321,0,0,0.2682321,23.259841,9.0866239)">
      <path
         id="path4208"
         d="M 0,0 336,0 336,336 0,336 0,0 z"
         inkscape:connector-curvature="0"
         style="fill:#000000;stroke:#000000;stroke-width:0.09375" />
      <path
         id="path4210"
         d="m 15,13.6 c 101.8,0 203.6,0 305.5,0 0,17.6 0,35.3 0,53 -101.8,0.1 -203.7,0 -305.5,0 0,-17.7 -0.1,-35.3 0,-53 z"
         inkscape:connector-curvature="0"
         style="fill:#ffffff;stroke:#ffffff;stroke-width:0.09375" />
      <path
         id="path4212"
         d="m 244.8,28.1 c 1.2,3.5 2.3,7.1 3.5,10.6 3.7,0 7.3,0 11,0.1 -2.9,2.3 -5.9,4.4 -8.9,6.5 1.1,3.6 2.3,7.1 3.4,10.6 -3,-2.1 -6,-4.3 -9,-6.4 -3,2.1 -6,4.3 -9,6.5 1.1,-3.6 2.2,-7.1 3.4,-10.7 -3,-2.1 -6,-4.3 -9,-6.5 3.7,-0.1 7.5,0 11.2,-0.1 1.1,-3.5 2.2,-7.1 3.4,-10.6 z"
         inkscape:connector-curvature="0"
         style="fill:#000000;stroke:#000000;stroke-width:0.09375" />
      <path
         id="path4214"
         d="m 87.2,38.7 c 1.1,-3.5 2.2,-7 3.4,-10.5 1.3,3.5 2.4,7 3.5,10.5 3.7,0 7.4,0 11.1,0.1 -2.9,2.3 -5.9,4.4 -8.9,6.5 1.1,3.6 2.3,7.1 3.3,10.6 -3,-2.1 -6,-4.3 -9,-6.4 -3,2.1 -6,4.4 -9.1,6.6 1.2,-3.6 2.4,-7.2 3.5,-10.8 -3,-2.1 -6,-4.2 -8.9,-6.5 3.7,-0.1 7.4,-0.1 11.1,-0.1 z"
         inkscape:connector-curvature="0"
         style="fill:#000000;stroke:#000000;stroke-width:0.09375" />
      <path
         id="path4216"
         d="m 167.7,28.2 c 1.2,3.5 2.3,7 3.5,10.5 3.7,0 7.4,0 11,0.1 -2.9,2.3 -5.8,4.4 -8.8,6.5 1.1,3.6 2.3,7.1 3.3,10.6 -3,-2.1 -6,-4.3 -9,-6.4 -3,2.1 -6,4.3 -9,6.5 1.1,-3.6 2.3,-7.1 3.4,-10.6 -3,-2.2 -6,-4.4 -8.9,-6.6 3.7,-0.1 7.4,0 11.1,-0.1 1.1,-3.5 2.2,-7 3.4,-10.5 z"
         inkscape:connector-curvature="0"
         style="fill:#000000;stroke:#000000;stroke-width:0.09375" />
      <path
         id="path4218"
         d="m 15,97.5 c 101.8,0 203.6,0 305.5,0 0,5.1 0,10.3 0,15.4 -101.9,0 -203.7,0 -305.5,0 0,-5.1 0,-10.3 0,-15.4 z"
         inkscape:connector-curvature="0"
         style="fill:#ffffff;stroke:#ffffff;stroke-width:0.09375" />
      <path
         id="path4220"
         d="m 15,143.8 c 1.6,0 3.2,0 4.9,0 -1.6,1.9 -3.3,3.8 -4.9,5.7 0,-1.9 0,-3.8 0,-5.7 z"
         inkscape:connector-curvature="0"
         style="fill:#ffffff;stroke:#ffffff;stroke-width:0.09375" />
      <path
         id="path4222"
         d="m 29.8,145.8 c 2.3,-2.6 6.1,-1.9 9.2,-2 6.6,0.3 13.8,-1.2 19.9,2.3 11.2,8.9 18.3,22.1 21.7,35.8 -2.1,2.6 -4,5.5 -5.5,8.5 -9.1,-8.8 -20.5,-15.7 -33.2,-17.1 -9.3,-1.1 -18.7,1.2 -26.9,5.4 0.1,-4.8 -0.4,-9.6 0.2,-14.4 3.9,-6.9 8.9,-13 14.6,-18.5 z"
         inkscape:connector-curvature="0"
         style="fill:#ffffff;stroke:#ffffff;stroke-width:0.09375" />
      <path
         id="path4224"
         d="m 66.7,143.9 c 11.2,-0.2 22.3,-0.1 33.5,-0.1 2.9,8 0.9,16.9 -1.8,24.7 -1,3.8 -5.6,4 -8.4,5.9 -4.3,-12.2 -12,-23.7 -23.3,-30.5 z"
         inkscape:connector-curvature="0"
         style="fill:#ffffff;stroke:#ffffff;stroke-width:0.09375" />
      <path
         id="path4226"
         d="m 105.6,143.8 c 7.6,0 15.3,-0.1 22.9,0 -1.6,9.6 -7.4,18.3 -14.7,24.5 -2.1,0.3 -4.2,0.3 -6.2,0.4 1.4,-8.3 0.8,-17 -2,-24.9 z"
         inkscape:connector-curvature="0"
         style="fill:#ffffff;stroke:#ffffff;stroke-width:0.09375" />
      <path
         id="path4228"
         d="m 133.5,143.8 c 6.7,0 13.5,0 20.3,0 0.8,6.9 -1.1,14.7 -6.8,19.2 -5.6,4.3 -12,8 -19,9.3 -1.5,-0.5 -3,-1.2 -4.5,-1.8 4.6,-8.3 9.6,-16.9 10,-26.7 z"
         inkscape:connector-curvature="0"
         style="fill:#ffffff;stroke:#ffffff;stroke-width:0.09375" />
      <path
         id="path4230"
         d="m 168.1,143.8 c 48,0 95.9,0 143.8,0 2.4,17 3,34.2 1.8,51.2 -1.7,19.7 -8,38.6 -16.5,56.3 -13.7,28.4 -34.2,54.6 -62.3,69.9 -21.9,0.2 -43.8,0.2 -65.7,0 -3.6,-2.8 -7.3,-5.7 -10.2,-9.3 -4.1,-10.3 -4.1,-21.7 -2.8,-32.5 1.2,-9.4 3.6,-18.6 6.7,-27.5 0.5,-1.4 0.9,-2.9 2.1,-3.9 11.7,-11 19.5,-25.9 22.5,-41.7 2.3,-12.2 1.7,-25.1 -3.2,-36.6 -4.1,-9.4 -9.7,-18 -16.2,-25.9 z"
         inkscape:connector-curvature="0"
         style="fill:#ffffff;stroke:#ffffff;stroke-width:0.09375" />
      <path
         id="path4232"
         d="m 159.2,146.5 c 5.6,6.3 10.5,13.2 14.5,20.7 -3.2,6.3 -7.7,14.2 -15.7,14.2 -7.4,0.7 -15,-0.3 -21.9,-2.9 6.8,-5.1 14.7,-9.7 19.1,-17.3 2.7,-4.4 3.6,-9.6 4,-14.7 z"
         inkscape:connector-curvature="0"
         style="fill:#ffffff;stroke:#ffffff;stroke-width:0.09375" />
      <path
         id="path4234"
         d="m 166.3,184.3 c 4.3,-2.9 7.5,-7.1 10.4,-11.4 3,7.9 4.3,16.5 3.4,25 -5.9,3.8 -12.9,6.2 -20,6.8 -5.9,-1 -11.3,-4.1 -15.8,-8 -2.2,-1.4 -1.9,-4.1 -2.5,-6.3 8.5,0.5 17.4,-1.1 24.5,-6.1 z"
         inkscape:connector-curvature="0"
         style="fill:#ffffff;stroke:#ffffff;stroke-width:0.09375" />
      <path
         id="path4236"
         d="m 101.5,178.4 c 2.7,-0.6 5.5,-1.2 8.4,-1.5 2.5,3.3 3.5,7.5 2.8,11.6 -0.6,0.1 -1.7,0.2 -2.2,0.3 -2.1,-4.2 -5.3,-7.6 -9,-10.4 z"
         inkscape:connector-curvature="0"
         style="fill:#ffffff;stroke:#ffffff;stroke-width:0.09375" />
      <path
         id="path4238"
         d="m 116.2,177.1 c 3.3,0.8 6.5,1.9 9.4,3.7 -0.4,4.5 -3.6,8.3 -7.9,9.5 0.4,-4.5 0.2,-9 -1.5,-13.2 z"
         inkscape:connector-curvature="0"
         style="fill:#ffffff;stroke:#ffffff;stroke-width:0.09375" />
      <path
         id="path4240"
         d="m 15.1,184.4 c 4.7,-2.3 9.5,-5.1 14.8,-5.4 16.1,2.5 30.3,12.4 40.1,25.1 2.3,2.7 1,6.5 1.6,9.7 -10.2,-3.3 -21.5,-3.8 -31.6,0.1 -10.3,3.7 -18.5,11.4 -25,19.9 0,-16.4 -0.2,-32.9 0.1,-49.4 z"
         inkscape:connector-curvature="0"
         style="fill:#ffffff;stroke:#ffffff;stroke-width:0.09375" />
      <path
         id="path4242"
         d="m 86.2,188.3 c 3.3,-2.8 7.2,-8.7 12.1,-5.6 3.7,1.6 7.1,6.1 4.9,10.1 -4.9,-3.5 -10.9,-5.8 -17,-4.5 z"
         inkscape:connector-curvature="0"
         style="fill:#ffffff;stroke:#ffffff;stroke-width:0.09375" />
      <path
         id="path4244"
         d="m 122.5,194.1 c 3.3,-2.4 6,-5.5 7.6,-9.2 2.6,3.5 3.9,7.8 4.4,12.2 -2.8,3.4 -7.4,3.6 -10.9,1.4 -0.4,-1.4 -0.7,-2.9 -1.1,-4.4 z"
         inkscape:connector-curvature="0"
         style="fill:#ffffff;stroke:#ffffff;stroke-width:0.09375" />
      <path
         id="path4246"
         d="m 84.6,194.6 c 2.6,-1.4 5.9,-2.3 8.8,-1.1 2.5,2 5.9,4.4 4.4,8 -6.5,-1.2 -13.3,0.6 -18.1,5.2 0.9,-4.1 0.2,-10.1 4.9,-12.1 z"
         inkscape:connector-curvature="0"
         style="fill:#ffffff;stroke:#ffffff;stroke-width:0.09375" />
      <path
         id="path4248"
         d="m 106,207.8 c -0.6,-3.3 -0.5,-7.6 3,-9.3 0.9,3.5 -1.8,6.3 -3,9.3 z"
         inkscape:connector-curvature="0"
         style="fill:#ffffff;stroke:#ffffff;stroke-width:0.09375" />
      <path
         id="path4250"
         d="m 119.2,204.8 c 2,-2.2 4.6,-0.5 6.9,-0.1 2.6,0.7 5.3,-0.1 7.9,-0.5 -1.2,3.3 -2.5,6.4 -4.3,9.4 -4.6,-1.3 -8.5,-4.5 -10.5,-8.8 z"
         inkscape:connector-curvature="0"
         style="fill:#ffffff;stroke:#ffffff;stroke-width:0.09375" />
      <path
         id="path4252"
         d="m 111.5,215.4 c -1.4,-3.7 -0.3,-7.9 1.9,-11.1 1.5,2.6 2.6,5.5 4.6,7.7 2,2.4 4.8,3.9 7.3,5.8 -4.7,1.8 -10,0.8 -13.8,-2.4 z"
         inkscape:connector-curvature="0"
         style="fill:#ffffff;stroke:#ffffff;stroke-width:0.09375" />
      <path
         id="path4254"
         d="m 142,205.1 c 11.3,7.3 25.8,5 37.2,-0.7 -1.7,9.1 -5.1,17.9 -10,25.7 -6.4,1.5 -13.9,1.3 -19,-3.3 -4.2,-4.8 -7,-10.8 -8.6,-17 -0.4,-1.5 0.2,-3.1 0.4,-4.7 z"
         inkscape:connector-curvature="0"
         style="fill:#ffffff;stroke:#ffffff;stroke-width:0.09375" />
      <path
         id="path4256"
         d="m 86.3,208.1 c 3.8,-1 7.7,0.2 11.4,1.3 0.6,1.4 1.2,2.9 1.8,4.4 -3.4,1.2 -7,2.5 -9.4,5.3 -2.5,2.4 -3.4,5.9 -4.5,9.2 -2.2,-4.2 -4.7,-8.4 -5.1,-13.2 1.3,-2.8 3.1,-5.4 5.8,-7 z"
         inkscape:connector-curvature="0"
         style="fill:#ffffff;stroke:#ffffff;stroke-width:0.09375" />
      <path
         id="path4258"
         d="m 301.2,262.1 c 9,-16.8 15.5,-34.8 19.3,-53.5 0,37.6 -0.1,75.1 0,112.7 -23.3,0 -46.5,0.1 -69.8,-0.1 21.7,-14.9 38.1,-36.1 50.5,-59.1 z"
         inkscape:connector-curvature="0"
         style="fill:#ffffff;stroke:#ffffff;stroke-width:0.09375" />
      <path
         id="path4260"
         d="m 131.2,236 c -0.3,-6.3 0,-13.5 5.3,-17.8 3.5,6.3 8.2,12.3 14.9,15.4 4.1,2.1 8.8,2.5 13.4,2.5 -5.5,6.4 -12.2,11.7 -20,14.8 -4.8,-2.9 -9.4,-6.4 -12.6,-11 -0.8,-1.2 -0.8,-2.6 -1,-3.9 z"
         inkscape:connector-curvature="0"
         style="fill:#ffffff;stroke:#ffffff;stroke-width:0.09375" />
      <path
         id="path4262"
         d="m 94.7,221.7 c 2.8,-1.3 5.9,-2.2 8.9,-1.6 2,1.3 3.9,2.8 5.9,4.1 -2.5,2.9 -4.8,6.1 -5.5,9.9 -1,3.8 0,7.7 1,11.4 -5,-3.1 -10.1,-6.3 -13.9,-10.8 -0.8,-4.5 -0.3,-10.1 3.6,-13 z"
         inkscape:connector-curvature="0"
         style="fill:#ffffff;stroke:#ffffff;stroke-width:0.09375" />
      <path
         id="path4264"
         d="m 31.4,224.4 c 13.4,-4.3 28.1,-2.8 41.2,1.9 1.4,0.6 3.1,0.9 3.7,2.4 1.9,3.4 4,6.6 6.5,9.6 -14.1,2.4 -27.1,10.8 -34.1,23.4 -7.9,13.7 -9.1,30 -8.4,45.5 -10.3,-8.8 -18.8,-19.6 -24.7,-31.8 -1,-2 -0.6,-4.2 -0.7,-6.4 0.2,-8.6 -0.2,-17.2 0.2,-25.8 4,-7.3 9.5,-14 16.3,-18.8 z"
         inkscape:connector-curvature="0"
         style="fill:#ffffff;stroke:#ffffff;stroke-width:0.09375" />
      <path
         id="path4266"
         d="m 117.4,227.3 c 2,-0.3 4,-0.2 6.1,-0.3 -0.9,10.8 6.5,19.8 14.7,25.8 -8.5,1.2 -17.4,-0.1 -25.3,-3.7 -2.1,-2.5 -3.5,-5.8 -4,-9 1.3,-5.1 4.2,-9.9 8.5,-12.8 z"
         inkscape:connector-curvature="0"
         style="fill:#ffffff;stroke:#ffffff;stroke-width:0.09375" />
      <path
         id="path4268"
         d="m 51.4,269.4 c 11.8,-12.1 29.2,-16.5 45.6,-17 4.1,-0.6 7.2,2.4 10.8,3.8 -8.9,6 -15.3,15.6 -17.2,26.2 -2.5,13.2 0.8,26.6 5.6,38.9 -12.4,0 -24.8,0.1 -37.2,-0.1 -4.8,-2.3 -8.9,-6 -13.2,-9.3 -1.1,-11.7 -1,-23.7 2.1,-35.1 0.7,-2.6 1.3,-5.5 3.5,-7.4 z"
         inkscape:connector-curvature="0"
         style="fill:#ffffff;stroke:#ffffff;stroke-width:0.09375" />
      <path
         id="path4270"
         d="m 129,262.9 c 3,-1.9 6.8,-1.2 10.1,-1.8 -4.2,7.9 -5.1,17.5 -2.5,26.1 4.1,13.8 14.2,24.6 24.6,34.1 -19.8,0.1 -39.7,0 -59.5,0 -2.5,-5.9 -4.6,-12.1 -5.8,-18.4 -0.6,-2.9 0.9,-5.6 1.8,-8.3 5.9,-14.1 18.2,-24.3 31.3,-31.7 z"
         inkscape:connector-curvature="0"
         style="fill:#ffffff;stroke:#ffffff;stroke-width:0.09375" />
      <path
         id="path4272"
         d="m 15,291.3 c 7.8,11.7 18.1,21.3 29,30 -9.7,0.1 -19.4,0 -29,0 0,-10 -0.1,-20 0,-30 z"
         inkscape:connector-curvature="0"
         style="fill:#ffffff;stroke:#ffffff;stroke-width:0.09375" />
    </g>
    <text
       xml:space="preserve"
       style="font-style:normal;font-variant:normal;font-weight:normal;font-stretch:normal;line-height:0%;font-family:'DejaVu Sans Condensed';-inkscape-font-specification:'DejaVu Sans Condensed,';text-align:start;letter-spacing:0px;word-spacing:0px;writing-mode:lr-tb;text-anchor:start;fill:#ffffff;fill-opacity:1;stroke:none"
       x="117.62526"
       y="59.967026"
       id="text4319"
       transform="scale(1.0831735,0.92321313)"><tspan
         sodipodi:role="line"
         x="117.62526"
         y="59.967026"
         id="tspan4989"
         style="font-style:normal;font-variant:normal;font-weight:normal;font-stretch:normal;font-size:11px;line-height:129.99999523%;font-family:'DejaVu Sans Condensed';-inkscape-font-specification:'DejaVu Sans Condensed,';text-align:start;writing-mode:lr-tb;text-anchor:start">1525 Newton St NW</tspan><tspan
         sodipodi:role="line"
         x="117.62526"
         y="74.267029"
         style="font-style:normal;font-variant:normal;font-weight:normal;font-stretch:normal;font-size:11px;line-height:129.99999523%;font-family:'DejaVu Sans Condensed';-inkscape-font-specification:'DejaVu Sans Condensed,';text-align:start;writing-mode:lr-tb;text-anchor:start"
         id="tspan4991">Washington DC 20010</tspan><tspan
         sodipodi:role="line"
         x="117.62526"
         y="88.567024"
         style="font-style:normal;font-variant:normal;font-weight:normal;font-stretch:normal;font-size:11px;line-height:129.99999523%;font-family:'DejaVu Sans Condensed';-inkscape-font-specification:'DejaVu Sans Condensed,';text-align:start;writing-mode:lr-tb;text-anchor:start"
         id="tspan4993">202-556-4225 (556-HACK)</tspan><tspan
         sodipodi:role="line"
         x="117.62526"
         y="102.86703"
         style="font-style:normal;font-variant:normal;font-weight:normal;font-stretch:normal;font-size:11px;line-height:129.99999523%;font-family:'DejaVu Sans Condensed';-inkscape-font-specification:'DejaVu Sans Condensed,';text-align:start;writing-mode:lr-tb;text-anchor:start"
         id="tspan4999">www.hacdc.org</tspan><tspan
         sodipodi:role="line"
         x="117.62526"
         y="117.16702"
         style="font-style:normal;font-variant:normal;font-weight:normal;font-stretch:normal;font-size:11px;line-height:129.99999523%;font-family:'DejaVu Sans Condensed';-inkscape-font-specification:'DejaVu Sans Condensed,';text-align:start;writing-mode:lr-tb;text-anchor:start"
         id="tspan4997"> </tspan><tspan
         sodipodi:role="line"
         x="117.62526"
         y="131.46703"
         id="tspan4987"
         style="font-style:normal;font-variant:normal;font-weight:normal;font-stretch:normal;font-size:11px;line-height:129.99999523%;font-family:'DejaVu Sans Condensed';-inkscape-font-specification:'DejaVu Sans Condensed,';text-align:start;writing-mode:lr-tb;text-anchor:start"> </tspan></text>
    <text
       xml:space="preserve"
       style="font-style:normal;font-variant:normal;font-weight:bold;font-stretch:normal;line-height:0%;font-family:'DejaVu Sans';-inkscape-font-specification:'DejaVu Sans Bold';text-align:end;letter-spacing:0px;word-spacing:0px;writing-mode:lr-tb;text-anchor:end;fill:#000000;fill-opacity:1;stroke:none"
       x="298.7244"
       y="128.47244"
       id="text4973"><tspan
         sodipodi:role="line"
         id="tspan4975"
         x="298.7244"
         y="128.47244"
         style="font-style:normal;font-variant:normal;font-weight:bold;font-stretch:normal;font-size:13px;line-height:120.00000477%;font-family:'DejaVu Sans';-inkscape-font-specification:'DejaVu Sans Bold';text-align:end;writing-mode:lr-tb;text-anchor:end;fill:#000000">Tim Slagle</tspan><tspan
         sodipodi:role="line"
         x="298.7244"
         y="142.35291"
         id="tspan4977"
         style="font-style:normal;font-variant:normal;font-weight:normal;font-stretch:normal;font-size:11px;line-height:120.00000477%;font-family:'DejaVu Sans';-inkscape-font-specification:'DejaVu Sans';text-align:end;writing-mode:lr-tb;text-anchor:end;fill:#000000">Treasurer@HacDC.org</tspan><tspan
         sodipodi:role="line"
         x="298.7244"
         y="155.55292"
         style="font-style:normal;font-variant:normal;font-weight:normal;font-stretch:normal;font-size:11px;line-height:120.00000477%;font-family:'DejaVu Sans';-inkscape-font-specification:'DejaVu Sans';text-align:end;writing-mode:lr-tb;text-anchor:end;fill:#000000"
         id="tspan5001">slagle@slagle.org</tspan><tspan
         sodipodi:role="line"
         x="302.55399"
         y="168.75291"
         style="font-style:normal;font-variant:normal;font-weight:bold;font-stretch:normal;font-size:11px;line-height:120.00000477%;font-family:'DejaVu Sans';-inkscape-font-specification:'DejaVu Sans Bold';text-align:end;writing-mode:lr-tb;text-anchor:end;fill:#000000"
         id="tspan4979"> </tspan></text>
    <text
       xml:space="preserve"
       style="font-style:normal;font-variant:normal;font-weight:bold;font-stretch:normal;line-height:0%;font-family:'DejaVu Sans Condensed';-inkscape-font-specification:'DejaVu Sans Condensed, Bold';text-align:center;letter-spacing:0px;word-spacing:0px;writing-mode:lr-tb;text-anchor:middle;fill:#ffffff;fill-opacity:1;stroke:none"
       x="188.28581"
       y="40.125797"
       id="text4685"><tspan
         sodipodi:role="line"
         id="tspan4687"
         x="188.28581"
         y="40.125797"
         style="font-style:normal;font-variant:normal;font-weight:bold;font-stretch:normal;font-size:38px;line-height:125%;font-family:'DejaVu Sans Condensed';-inkscape-font-specification:'DejaVu Sans Condensed, Bold';text-align:center;writing-mode:lr-tb;text-anchor:middle">HacDC</tspan></text>
  </g>
</svg>
